Automatic Package Testing • rOpenSci: autotest
…
The simply way to use the package is

x <- autotest_package ("<package>")

The main argument to the autotest_package() function can either be the name of an installed package, or a path to a local directory containing the source for a package. The result is a data.frame of errors, warnings, and other diagnostic messages issued during package auotest-ing. The function has an additional parameter, functions, to restrict tests to specified functions only.

By default, autotest_package() returns a list of all tests applied to a package without actually running them. To implement those tests, set the parameter test to TRUE. Results are only returned for tests in which functions do not behave as expected, whether through triggering errors, warnings, or other behaviour as described below. The ideal behaviour of autotest_package() is to return nothing (or strictly, NULL), indicating that all tests passed successfully. See the main package vignette for an introductory tour of the package.

What is tested?

The package includes a function which lists all tests currently implemented.

autotest_types ()
#> # A tibble: 27 x 8
#>    type  test_name  fn_name parameter parameter_type operation   content   test 
#>    <chr> <chr>      <chr>   <chr>     <chr>          <chr>       <chr>     <lgl>
#>  1 dummy rect_as_o… <NA>    <NA>      rectangular    Convert on… "check f… TRUE 
#>  2 dummy rect_comp… <NA>    <NA>      rectangular    Convert on… "expect … TRUE 
#>  3 dummy rect_comp… <NA>    <NA>      rectangular    Convert on… "expect … TRUE 
#>  4 dummy rect_comp… <NA>    <NA>      rectangular    Convert on… "expect … TRUE 
#>  5 dummy extend_re… <NA>    <NA>      rectangular    Extend exi… "(Should… TRUE 
#>  6 dummy replace_r… <NA>    <NA>      rectangular    Replace cl… "(Should… TRUE 
#>  7 dummy vector_to… <NA>    <NA>      vector         Convert ve… "(Should… TRUE 
#>  8 dummy vector_cu… <NA>    <NA>      vector         Custom cla… "(Should… TRUE 
#>  9 dummy double_is… <NA>    <NA>      numeric        Check whet… "int par… TRUE 
#> 10 dummy trivial_n… <NA>    <NA>      numeric        Add trivia… "(Should… TRUE 
#> # … with 17 more rows
…
As described above, tests can also be selectively applied to particular functions through the parameters functions, used to nominate functions to include in tests, or exclude, used to nominate functions to exclude from tests. The following code illustrates.

x <- autotest_package (package = "stats", functions = "var", test = FALSE)
#> 
#> ── autotesting stats ──
#> 
#> ✔ [1 / 6]: var
#> ✔ [2 / 6]: cor
#> ✔ [3 / 6]: cor
#> ✔ [4 / 6]: cov
#> ✔ [5 / 6]: cov
#> ✔ [6 / 6]: cor
print (x)
#> # A tibble: 206 x 9
#>    type   test_name  fn_name parameter parameter_type operation  content   test 
#>    <chr>  <chr>      <chr>   <chr>     <chr>          <chr>      <chr>     <lgl>
#>  1 warni… par_is_de… var     use       <NA>           Check tha… Examples… TRUE 
#>  2 warni… par_is_de… cov     y         <NA>           Check tha… Examples… TRUE 
#>  3 dummy  trivial_n… var     x         numeric        Add trivi… (Should … TRUE 
#>  4 dummy  vector_cu… var     x         vector         Custom cl… (Should … TRUE 
#>  5 dummy  vector_to… var     x         vector         Convert v… (Should … TRUE 
#>  6 dummy  negate_lo… var     na.rm     single logical Negate de… (Functio… TRUE 
#>  7 dummy  subst_int… var     na.rm     single logical Substitut… (Functio… TRUE 
#>  8 dummy  subst_cha… var     na.rm     single logical Substitut… should t… TRUE 
#>  9 dummy  single_pa… var     na.rm     single logical Length 2 … Should t… TRUE 
#> 10 dummy  return_su… var     (return … (return objec… Check tha… <NA>      TRUE 
#> # … with 196 more rows, and 1 more variable: yaml_hash <chr>
…
